Take Home Assessment 4
…
heart_df <- read_csv(here::here("data/heart.csv")) |>
  mutate(target = case_when(target == 1 ~ 0,
                            target == 0 ~ 1)) ## flip coding of response

Rows: 303 Columns: 14
── Column specification ────────────────────────────────────────────────────────
Delimiter: ","
dbl (14): age, sex, cp, trestbps, chol, fbs, restecg, thalach, exang, oldpea...

ℹ Use `spec()` to retrieve the full column specification for this data.
ℹ Specify the column types or set `show_col_types = FALSE` to quiet this message.

heart_df

# A tibble: 303 × 14
     age   sex    cp trestbps  chol   fbs restecg thalach exang oldpeak slope
   <dbl> <dbl> <dbl>    <dbl> <dbl> <dbl>   <dbl>   <dbl> <dbl>   <dbl> <dbl>
 1    63     1     3      145   233     1       0     150     0     2.3     0
 2    37     1     2      130   250     0       1     187     0     3.5     0
 3    41     0     1      130   204     0       0     172     0     1.4     2
 4    56     1     1      120   236     0       1     178     0     0.8     2
 5    57     0     0      120   354     0       1     163     1     0.6     2
 6    57     1     0      140   192     0       1     148     0     0.4     1
 7    56     0     1      140   294     0       0     153     0     1.3     1
 8    44     1     1      120   263     0       1     173     0     0       2
 9    52     1     2      172   199     1       1     162     0     0.5     2
10    57     1     2      150   168     0       1     174     0     1.6     2
# ℹ 293 more rows
# ℹ 3 more variables: ca <dbl>, thal <dbl>, target <dbl>
…
