09 Linear Model Visualization
…
   <chr>     <dbl>   <dbl>  <dbl>  <dbl>
 1 aug_age    29      4.29   4.18   4.40
 2 aug_age    37.8    4.24   4.16   4.31
 3 aug_age    46.6    4.19   4.13   4.24
 4 aug_age    55.4    4.13   4.07   4.19
 5 aug_age    64.2    4.08   3.99   4.17
 6 aug_age    73      4.03   3.89   4.16
 7 aug_agesq  29      4.29   4.12   4.47
 8 aug_agesq  37.8    4.24   4.16   4.31
 9 aug_agesq  46.6    4.18   4.12   4.25
10 aug_agesq  55.4    4.13   4.07   4.20
11 aug_agesq  64.2    4.08   3.97   4.20
12 aug_agesq  73      4.03   3.76   4.30

#> # A tibble: 12 × 5
#>   model     age .fitted .lower .upper
#>   <chr>   <dbl>   <dbl>  <dbl>  <dbl>
#> 1 aug_age  29      4.29   4.18   4.40
#> 2 aug_age  37.8    4.24   4.16   4.31
#> 3 aug_age  46.6    4.19   4.13   4.24
#> 4 aug_age  55.4    4.13   4.07   4.19
#> 5 aug_age  64.2    4.08   3.99   4.17
#> 6 aug_age  73      4.03   3.89   4.16
#> # ℹ 6 more rows
…
grid <- evals |>
  data_grid(
    # trim() trims the ages at each tail by (0.1/2) * length(x)
    age = seq_range(age, n = 6, trim = 0.1),
    bty_avg = seq_range(bty_avg, n = 6),
    gender = c("female", "male")
  ) 

aug_int <- augment(mod_comp, newdata = grid,
                   interval = "confidence")
aug_int

# A tibble: 72 × 6
     age bty_avg gender .fitted .lower .upper
   <dbl>   <dbl> <chr>    <dbl>  <dbl>  <dbl>
 1    33    1.67 female    4.20   4.01   4.40
 2    33    1.67 male      4.41   4.21   4.62
 3    33    2.97 female    4.18   4.04   4.32
 4    33    2.97 male      4.40   4.25   4.54
 5    33    4.27 female    4.16   4.06   4.27
 6    33    4.27 male      4.38   4.26   4.49
 7    33    5.57 female    4.15   4.04   4.25
 8    33    5.57 male      4.36   4.24   4.47
 9    33    6.87 female    4.13   3.98   4.27
10    33    6.87 male      4.34   4.19   4.49
# ℹ 62 more rows
…
aug_int_new <- augment(mod_comp_new, newdata = grid_new,
                   interval = "confidence")

aug_no_int <- augment(mod_comp_no_int, newdata = grid_new,
                   interval = "confidence")

plot_df_new <- bind_rows(list(aug_int_new, aug_no_int), .id = "model")
plot_df_new

# A tibble: 48 × 7
   model   age gender ethnicity    .fitted .lower .upper
   <chr> <dbl> <chr>  <chr>          <dbl>  <dbl>  <dbl>
 1 1        33 female minority        4.21   4.04   4.39
 2 1        33 female not minority    4.33   4.20   4.46
 3 1        33 male   minority        4.21   4.03   4.39
 4 1        33 male   not minority    4.32   4.19   4.45
 5 1        39 female minority        4.11   3.96   4.25
 6 1        39 female not minority    4.22   4.13   4.32
 7 1        39 male   minority        4.18   4.03   4.34
 8 1        39 male   not minority    4.30   4.20   4.40
 9 1        45 female minority        4.00   3.86   4.14
10 1        45 female not minority    4.12   4.04   4.19
# ℹ 38 more rows
…
