10 Logistic Model Visualization
…
here() starts at /Users/bensunshine/Documents/SLU_Senior_Year/SP24/data_334

library(broom)
theme_set(theme_minimal())

titanic_df <- read_csv(here("data/titanic.csv"),
                       col_types = list(Pclass = col_factor())) |>
  mutate(Pclass = fct_recode(Pclass,
                             "1st" = "1",
                             "2nd" = "2",
                             "3rd" = "3"))
titanic_df

# A tibble: 891 × 12
   PassengerId Survived Pclass Name   Sex     Age SibSp Parch Ticket  Fare Cabin
         <dbl>    <dbl> <fct>  <chr>  <chr> <dbl> <dbl> <dbl> <chr>  <dbl> <chr>
 1           1        0 3rd    Braun… male     22     1     0 A/5 2…  7.25 <NA> 
 2           2        1 1st    Cumin… fema…    38     1     0 PC 17… 71.3  C85  
 3           3        1 3rd    Heikk… fema…    26     0     0 STON/…  7.92 <NA> 
 4           4        1 1st    Futre… fema…    35     1     0 113803 53.1  C123 
 5           5        0 3rd    Allen… male     35     0     0 373450  8.05 <NA> 
 6           6        0 3rd    Moran… male     NA     0     0 330877  8.46 <NA> 
 7           7        0 1st    McCar… male     54     0     0 17463  51.9  E46  
 8           8        0 3rd    Palss… male      2     3     1 349909 21.1  <NA> 
 9           9        1 3rd    Johns… fema…    27     0     2 347742 11.1  <NA> 
10          10        1 2nd    Nasse… fema…    14     1     0 237736 30.1  <NA> 
# ℹ 881 more rows
# ℹ 1 more variable: Embarked <chr>

#> # A tibble: 891 × 12
#>   PassengerId Survived Pclass Name       Sex     Age SibSp Parch Ticket  Fare
#>         <dbl>    <dbl> <fct>  <chr>      <chr> <dbl> <dbl> <dbl> <chr>  <dbl>
#> 1           1        0 3rd    Braund, M… male     22     1     0 A/5 2…  7.25
#> 2           2        1 1st    Cumings, … fema…    38     1     0 PC 17… 71.3 
#> 3           3        1 3rd    Heikkinen… fema…    26     0     0 STON/…  7.92
#> 4           4        1 1st    Futrelle,… fema…    35     1     0 113803 53.1 
#> 5           5        0 3rd    Allen, Mr… male     35     0     0 373450  8.05
#> 6           6        0 3rd    Moran, Mr… male     NA     0     0 330877  8.46
#> # ℹ 885 more rows
#> # ℹ 2 more variables: Cabin <chr>, Embarked <chr>
…
