…
```{r}
library(tidyverse)
library(here)
library(broom)
theme_set(theme_minimal())

titanic_df <- read_csv(here("data/titanic.csv"),
                       col_types = list(Pclass = col_factor())) |>
  mutate(Pclass = fct_recode(Pclass,
                             "1st" = "1",
                             "2nd" = "2",
                             "3rd" = "3"))
titanic_df
#> # A tibble: 891 × 12
#>   PassengerId Survived Pclass Name       Sex     Age SibSp Parch Ticket  Fare
#>         <dbl>    <dbl> <fct>  <chr>      <chr> <dbl> <dbl> <dbl> <chr>  <dbl>
#> 1           1        0 3rd    Braund, M… male     22     1     0 A/5 2…  7.25
#> 2           2        1 1st    Cumings, … fema…    38     1     0 PC 17… 71.3 
#> 3           3        1 3rd    Heikkinen… fema…    26     0     0 STON/…  7.92
#> 4           4        1 1st    Futrelle,… fema…    35     1     0 113803 53.1 
#> 5           5        0 3rd    Allen, Mr… male     35     0     0 373450  8.05
#> 6           6        0 3rd    Moran, Mr… male     NA     0     0 330877  8.46
#> # ℹ 885 more rows
#> # ℹ 2 more variables: Cabin <chr>, Embarked <chr>
```
…
-   Model predict the odds of a male passenger surviving with all other variables held constant is exp(-2.52278).


2. Construct a grid of predictor values with the data_grid() function from the modelr package.
```{r}
library(modelr)
grid <- titanic_df |>
  data_grid(
    Age = seq_range(Age, n = 10),
    Sex = c("female", "male"),
    Pclass = c("1st", "2nd", "3rd")
  ) 
grid
#> # A tibble: 60 × 3
#>     Age Sex    Pclass
#>   <dbl> <chr>  <chr> 
#> 1  0.42 female 1st   
#> 2  0.42 female 2nd   
#> 3  0.42 female 3rd   
#> 4  0.42 male   1st   
#> 5  0.42 male   2nd   
#> 6  0.42 male   3rd   
#> # ℹ 54 more rows
```



Exercise 1. Examine the .fitted column in aug_surv. What are these values? Why are they not between 0 and 1?

-   The .fitted values are the predicted log odds, which are from negative infiinity to positive infinity


Exercise 2. Make a plot of the values of .fitted (without modifying them).

```{r}
aug_surv <- augment(titanic_large, newdata = grid,
                    se_fit = TRUE)
aug_surv
#> # A tibble: 60 × 5
#>     Age Sex    Pclass .fitted .se.fit
#>   <dbl> <chr>  <chr>    <dbl>   <dbl>
#> 1  0.42 female 1st     3.76     0.399
#> 2  0.42 female 2nd     2.45     0.317
#> 3  0.42 female 3rd     1.18     0.250
#> 4  0.42 male   1st     1.24     0.357
#> 5  0.42 male   2nd    -0.0711   0.296
#> 6  0.42 male   3rd    -1.34     0.246
#> # ℹ 54 more rows
```
…
