13 Introduction to Interactivity
…
raw_zip <- uszipcodes::get_zip(beers$address)
beers$Zip <- as.integer(uszipcodes::clean_zip(raw_zip))

Warning: NAs introduced by coercion

zip_tab <- zip_table |> dplyr::select(Zip, Latitude, Longitude)
beer_location <- inner_join(beers, zip_tab)

Joining with `by = join_by(Zip)`

beer_location

# A tibble: 2,327 × 9
   brewery_name       type  address website state state_breweries   Zip Latitude
   <chr>              <chr> <chr>   <chr>   <chr>           <dbl> <int>    <dbl>
 1 Valley Brewing Co. Brew… PO Box… http:/… cali…             284 95204     38.0
 2 Valley Brewing Co. Brew… 157 Ad… http:/… cali…             284 95204     38.0
 3 Valley Brewing Co  Micr… 1950 W… http:/… cali…             284 95203     38.0
 4 Ukiah Brewing Com… Brew… 102 S.… http:/… cali…             284 95482     39.2
 5 Tustin Brewing Co. Brew… 13011 … http:/… cali…             284 92780     33.7
 6 Trumer Brauerei    Micr… 1404 4… http:/… cali…             284 94608     37.8
 7 Trumer Brauerei    Regi… 1404 F… http:/… cali…             284 94710     37.9
 8 Triple Rock Brewi… Brew… 1920 S… http:/… cali…             284 94704     37.9
 9 Tied House Cafe &… Brew… 65 N. … http:/… cali…             284 95110     37.3
10 Tied House Cafe &… Brew… 954 Vi… http:/… cali…             284 94041     37.4
# ℹ 2,317 more rows
# ℹ 1 more variable: Longitude <dbl>
…
